<?xml version="1.0" encoding="UTF-8" standalone="no"?>
<svg
   xmlns:dc="http://purl.org/dc/elements/1.1/"
   xmlns:cc="http://creativecommons.org/ns#"
   xmlns:rdf="http://www.w3.org/1999/02/22-rdf-syntax-ns#"
   xmlns:svg="http://www.w3.org/2000/svg"
   xmlns="http://www.w3.org/2000/svg"
   id="svg8"
   version="1.1"
   viewBox="0 0 153 127"
   height="127mm"
   width="153mm">
  <defs
     id="defs2" />
  <metadata
     id="metadata5">
    <rdf:RDF>
      <cc:Work
         rdf:about="">
        <dc:format>image/svg+xml</dc:format>
        <dc:type
           rdf:resource="http://purl.org/dc/dcmitype/StillImage" />
        <dc:title></dc:title>
      </cc:Work>
    </rdf:RDF>
  </metadata>
  <g
     transform="translate(-26.126999,-43.431084)"
     id="layer1">
    <g
       transform="translate(0.80180859,0.80180859)"
       id="g844">
      <path
         style="fill:none;fill-opacity:1;stroke:#282c34;stroke-width:5;stroke-linecap:butt;stroke-linejoin:miter;stroke-miterlimit:4;stroke-dasharray:none;stroke-opacity:1"
         d="M 89.622162,151.26503 104.55785,70.209127"
         id="path833" />
      <path
         id="rect835"
         style="fill:#282c34;fill-opacity:1;fill-rule:evenodd;stroke:none;stroke-width:4.99999;stroke-linecap:round;stroke-linejoin:round;stroke-miterlimit:4;stroke-dasharray:none;stroke-opacity:1"
         d="m 105.63649,43.431568 c 0,0 14.31166,5.290115 21.82059,6.095767 9.16431,0.983267 18.4192,-2.399213 27.60314,-1.620665 7.53517,0.638771 22.10057,5.123109 22.10057,5.123109 l -4.36403,6.615887 c -6.7174,10.18363 -2.99934,14.125456 -6.43609,22.612605 0,0 -14.36526,-5.446952 -21.92213,-6.116574 -7.70706,-0.68293 -15.40943,2.998511 -23.10635,2.209507 -6.7921,-0.696251 -19.57038,-6.046075 -19.57038,-6.046075 -0.0687,-0.02556 -0.11149,-0.16379 -0.0871,-0.34539 l 3.78671,-28.217975 c 0.0243,-0.181598 0.10238,-0.319947 0.17511,-0.310194 z" />
      <path
         id="rect838"
         style="fill:#282c34;fill-opacity:1;fill-rule:evenodd;stroke:none;stroke-width:4.01608;stroke-linecap:round;stroke-linejoin:round;stroke-miterlimit:4;stroke-dasharray:none;stroke-opacity:1"
         d="m 43.857647,145.02518 c 9.790189,-5.3407 22.182181,-5.65818 33.438661,-6.0126 14.890672,-0.46885 28.860442,3.58055 43.730062,4.67898 8.8846,0.65633 19.32723,-1.53363 27.45776,1.33362 2.92566,1.03175 5.43152,3.45484 7.34244,6.07454 3.55389,4.87211 7.006,17.02769 7.006,17.02769 -45.57023,2.09516 -91.247015,-0.51114 -136.705571,0.26264 6.560251,-14.98484 9.429177,-18.83629 17.730648,-23.36487 z" />
    </g>
  </g>
</svg>
